


Website : 
https://avaya.lms.simplilearn.com 

Domain Seller : Godaddy.com 

Hosting : Azure Portal 
            - Azure DNS :
                - Hosted Zones 
                    -  avaya.lms.simplilearn.com
                        - NS ------> 4 ----> Update on Godaddy.com ---> under a domain --> avaya.lms.simplilearn.com
                        - SOA 
                        - A ---------> PublicIpaddress of VM 
                        - A ---------> PublicIpaddress of Load Balancer ----> VM ---> apache2(index.html)

Own Domain : codewithkesav.com 

Domain Seller : Godaddy.com 

