
Create Two Vnets in Azure part of Two different Regions 

and in both Vnet you should create VM i.e. Windows or Linux 

Vent-1 : 
Resource Group :
    - Vnet  [ 10.0.0.0/16]
        - Subnet 
            - NSG 
                - Rule 22 and 3389
                    - Public-Ipaddress  
                        - Create VM 

Vent-2 : 
Resource Group :
    - Vnet [ 172.16.0.0/16 ]
        - Subnet 
            - NSG 
                - Rule 22 and 3389
                    - Public-Ipaddress  
                        - Create VM 