{
    "$schema": "https://schema.management.azure.com/schemas/2015-01-01/deploymentTemplate.json#",
    "contentVersion": "1.0.0.1",
    "parameters": {
        "rgName": {
            "type": "string"
        },
        "rgLocation": {
            "type": "string"
        },
        "tags": {
            "type": "object",
            "defaultValue": {}
        }
    },
    "variables": {},
    "resources": [
        {
            "type": "Microsoft.Resources/resourceGroups",
            "apiVersion": "2018-05-01",
            "location": "[parameters('rgLocation')]",
            "name": "[parameters('rgName')]",
            "properties": {},
            "tags": "[parameters('tags')]"
        }
    ],
    "outputs": {}
}

{
    "$schema": "https://schema.management.azure.com/schemas/2015-01-01/deploymentParameters.json#",
    "contentVersion": "1.0.0.0",
    "parameters": {
        "rgName": {
            "value": "arm-RG"
        },
        "rgLocation": {
            "value": "eastus"
        },
        "tags": {
            "value": {}
        }
    }
}

